sim/alu_tb.vcd
$date
	Wed Mar 25 15:45:01 2026
$end
$version
	Icarus Verilog
$end
$timescale
	1ps
$end
$scope module alu_tb $end
$var wire 64 ! result [63:0] $end
$var parameter 5 " ADD $end
$var parameter 5 # ADDF $end
$var parameter 5 $ AND $end
$var parameter 5 % DIV $end
$var parameter 5 & DIVF $end
$var parameter 5 ' LSHIFT $end
$var parameter 5 ( MOV $end
$var parameter 5 ) MUL $end
$var parameter 5 * MULF $end
$var parameter 5 + NOT $end
$var parameter 5 , OR $end
$var parameter 5 - RSHIFT $end
$var parameter 5 . SUB $end
$var parameter 5 / SUBF $end
$var parameter 5 0 XOR $end
$var reg 64 1 a [63:0] $end
$var reg 64 2 b [63:0] $end
$var reg 5 3 op [4:0] $end
$var integer 32 4 errors [31:0] $end
$scope module dut $end
$var wire 64 5 a [63:0] $end
$var wire 64 6 b [63:0] $end
$var wire 5 7 op [4:0] $end
$var parameter 5 8 ADD $end
$var parameter 5 9 ADDF $end
$var parameter 5 : AND $end
$var parameter 5 ; DIV $end
$var parameter 5 < DIVF $end
$var parameter 5 = LSHIFT $end
$var parameter 5 > MOV $end
$var parameter 5 ? MUL $end
$var parameter 5 @ MULF $end
$var parameter 5 A NOT $end
$var parameter 5 B OR $end
$var parameter 5 C RSHIFT $end
$var parameter 5 D SUB $end
$var parameter 5 E SUBF $end
$var parameter 5 F XOR $end
$var reg 64 G result [63:0] $end
$upscope $end
$scope task check_result $end
$var reg 64 H expected [63:0] $end
$var reg 256 I test_name [255:0] $end
$upscope $end
$upscope $end
$enddefinitions $end
$comment Show the parameter values. $end
$dumpall
b100 F
b1100 E
b1 D
b111 C
b11 B
b101 A
b1101 @
b1000 ?
b1010 >
b110 =
b1110 <
b1001 ;
b10 :
b1011 9
b0 8
b100 0
b1100 /
b1 .
b111 -
b11 ,
b101 +
b1101 *
b1000 )
b1010 (
b110 '
b1110 &
b1001 %
b10 $
b1011 #
b0 "
$end
#0
$dumpvars
b11000010110010001100100 I
b1101 H
b1101 G
b0 7
b11 6
b1010 5
b0 4
b0 3
b11 2
b1010 1
b1101 !
$end
#1000
b111 !
b111 G
b111 H
b11100110111010101100010 I
b1 3
b1 7
#2000
b11110000 !
b11110000 G
b11110000 H
b11000010110111001100100 I
b10 3
b10 7
b111111110000 2
b111111110000 6
b1111000011110000 1
b1111000011110000 5
#3000
b1111111111110000 !
b1111111111110000 G
b1111111111110000 H
b110111101110010 I
b11 3
b11 7
#4000
b1010010110100101 !
b1010010110100101 G
b1010010110100101 H
b11110000110111101110010 I
b100 3
b100 7
b111100001111 2
b111100001111 6
b1010101010101010 1
b1010101010101010 5
#5000
b1111111111111111111111111111111111111111111111111111111100001111 !
b1111111111111111111111111111111111111111111111111111111100001111 G
b1111111111111111111111111111111111111111111111111111111100001111 H
b11011100110111101110100 I
b101 3
b101 7
b0 2
b0 6
b11110000 1
b11110000 5
#6000
b10100 !
b10100 G
b10100 H
b11011000111001101101000011010010110011001110100 I
b110 3
b110 7
b10 2
b10 6
b101 1
b101 5
#7000
b101 !
b101 G
b101 H
b11100100111001101101000011010010110011001110100 I
b111 3
b111 7
b10100 1
b10100 5
#8000
b101010 !
b101010 G
b101010 H
b11011010111010101101100 I
b1000 3
b1000 7
b111 2
b111 6
b110 1
b110 5
#9000
b110 !
b110 G
b110 H
b11001000110100101110110 I
b1001 3
b1001 7
b101010 1
b101010 5
#10000
b101110101101111100000000110111011110101011011011111011101111 !
b101110101101111100000000110111011110101011011011111011101111 G
b101110101101111100000000110111011110101011011011111011101111 H
b11011010110111101110110 I
b1010 3
b1010 7
b101110101101111100000000110111011110101011011011111011101111 2
b101110101101111100000000110111011110101011011011111011101111 6
b1001000110100010101100111100010011010101111001101111011110000 1
b1001000110100010101100111100010011010101111001101111011110000 5
#11000
b100000000001000000000000000000000000000000000000000000000000000 !
b100000000001000000000000000000000000000000000000000000000000000 G
b100000000001000000000000000000000000000000000000000000000000000 H
b110000101100100011001000110011000100000001100010010101100110010 I
b1011 3
b1011 7
b100000000000000000000000000000000000000000000000000000000000000 2
b100000000000000000000000000000000000000000000000000000000000000 6
b11111111110000000000000000000000000000000000000000000000000000 1
b11111111110000000000000000000000000000000000000000000000000000 5
#12000
b100000000000000000000000000000000000000000000000000000000000000 !
b100000000000000000000000000000000000000000000000000000000000000 G
b100000000000000000000000000000000000000000000000000000000000000 H
b111001101110101011000100110011000100000001100110010110100110001 I
b1100 3
b1100 7
b11111111110000000000000000000000000000000000000000000000000000 2
b11111111110000000000000000000000000000000000000000000000000000 6
b100000000001000000000000000000000000000000000000000000000000000 1
b100000000001000000000000000000000000000000000000000000000000000 5
#13000
b100000000001000000000000000000000000000000000000000000000000000 !
b100000000001000000000000000000000000000000000000000000000000000 G
b100000000011000000000000000000000000000000000000000000000000000 H
b110110101110101011011000110011000100000001100100010101000110011 I
b1101 3
b1101 7
b100000000001000000000000000000000000000000000000000000000000000 2
b100000000001000000000000000000000000000000000000000000000000000 6
b100000000000000000000000000000000000000000000000000000000000000 1
b100000000000000000000000000000000000000000000000000000000000000 5
#14000
b100000000000000000000000000000000000000000000000000000000000000 !
b100000000000000000000000000000000000000000000000000000000000000 G
b100000000001000000000000000000000000000000000000000000000000000 H
b110010001101001011101100110011000100000001101100010111100110010 I
b1110 3
b1110 7
b100000000000000000000000000000000000000000000000000000000000000 2
b100000000000000000000000000000000000000000000000000000000000000 6
b100000000011000000000000000000000000000000000000000000000000000 1
b100000000011000000000000000000000000000000000000000000000000000 5
b1 4
#15000
b0 !
b0 G
b0 H
b1100100011001010110011001100001011101010110110001110100 I
b11111 3
b11111 7
b10 2
b10 6
b1 1
b1 5
b10 4
