sim/decoder_tb.vcd
$date
	Fri Apr  3 10:09:11 2026
$end
$version
	Icarus Verilog
$end
$timescale
	1ps
$end
$scope module decoder_tb $end
$var wire 1 ! write_en $end
$var wire 5 " write_addr [4:0] $end
$var wire 1 # use_imm $end
$var wire 1 $ ret $end
$var wire 5 % read_addr_c [4:0] $end
$var wire 5 & read_addr_b [4:0] $end
$var wire 5 ' read_addr_a [4:0] $end
$var wire 1 ( mem_write $end
$var wire 1 ) mem_read $end
$var wire 64 * imm [63:0] $end
$var wire 1 + illegal $end
$var wire 1 , call $end
$var wire 1 - branch_rel $end
$var wire 1 . branch_nz $end
$var wire 1 / branch_gt $end
$var wire 1 0 branch_abs $end
$var wire 5 1 alu_op [4:0] $end
$var parameter 5 2 ALU_ADD $end
$var parameter 5 3 ALU_MOV $end
$var parameter 5 4 OP_ADD $end
$var parameter 5 5 OP_ADDI $end
$var parameter 5 6 OP_BRGT $end
$var parameter 5 7 OP_BRR_L $end
$var parameter 5 8 OP_CALL $end
$var parameter 5 9 OP_MOV_I $end
$var parameter 5 : OP_MOV_MR $end
$var parameter 5 ; OP_MOV_RM $end
$var parameter 5 < OP_PRIV $end
$var parameter 5 = OP_RETURN $end
$var reg 32 > instr [31:0] $end
$var integer 32 ? errors [31:0] $end
$scope function encode_i $end
$var reg 12 @ imm12 [11:0] $end
$var reg 5 A opcode [4:0] $end
$var reg 5 B rd [4:0] $end
$var reg 5 C rs [4:0] $end
$var reg 5 D rt [4:0] $end
$upscope $end
$scope function encode_r $end
$var reg 5 E opcode [4:0] $end
$var reg 5 F rd [4:0] $end
$var reg 5 G rs [4:0] $end
$var reg 5 H rt [4:0] $end
$upscope $end
$scope module dut $end
$var wire 32 I instr [31:0] $end
$var wire 5 J rt [4:0] $end
$var wire 5 K rs [4:0] $end
$var wire 5 L rd [4:0] $end
$var wire 5 M opcode [4:0] $end
$var wire 12 N L12 [11:0] $end
$var parameter 5 O ALU_ADD $end
$var parameter 5 P ALU_ADDF $end
$var parameter 5 Q ALU_AND $end
$var parameter 5 R ALU_DIV $end
$var parameter 5 S ALU_DIVF $end
$var parameter 5 T ALU_LSHIFT $end
$var parameter 5 U ALU_MOV $end
$var parameter 5 V ALU_MUL $end
$var parameter 5 W ALU_MULF $end
$var parameter 5 X ALU_NOT $end
$var parameter 5 Y ALU_OR $end
$var parameter 5 Z ALU_RSHIFT $end
$var parameter 5 [ ALU_SUB $end
$var parameter 5 \ ALU_SUBF $end
$var parameter 5 ] ALU_XOR $end
$var parameter 5 ^ OP_ADD $end
$var parameter 5 _ OP_ADDF $end
$var parameter 5 ` OP_ADDI $end
$var parameter 5 a OP_AND $end
$var parameter 5 b OP_BR $end
$var parameter 5 c OP_BRGT $end
$var parameter 5 d OP_BRNZ $end
$var parameter 5 e OP_BRR_L $end
$var parameter 5 f OP_BRR_R $end
$var parameter 5 g OP_CALL $end
$var parameter 5 h OP_DIV $end
$var parameter 5 i OP_DIVF $end
$var parameter 5 j OP_MOV_I $end
$var parameter 5 k OP_MOV_MR $end
$var parameter 5 l OP_MOV_R $end
$var parameter 5 m OP_MOV_RM $end
$var parameter 5 n OP_MUL $end
$var parameter 5 o OP_MULF $end
$var parameter 5 p OP_NOT $end
$var parameter 5 q OP_OR $end
$var parameter 5 r OP_PRIV $end
$var parameter 5 s OP_RETURN $end
$var parameter 5 t OP_SHFTL $end
$var parameter 5 u OP_SHFTLI $end
$var parameter 5 v OP_SHFTR $end
$var parameter 5 w OP_SHFTRI $end
$var parameter 5 x OP_SUB $end
$var parameter 5 y OP_SUBF $end
$var parameter 5 z OP_SUBI $end
$var parameter 5 { OP_XOR $end
$var reg 5 | alu_op [4:0] $end
$var reg 1 0 branch_abs $end
$var reg 1 / branch_gt $end
$var reg 1 . branch_nz $end
$var reg 1 - branch_rel $end
$var reg 1 , call $end
$var reg 1 + illegal $end
$var reg 64 } imm [63:0] $end
$var reg 1 ) mem_read $end
$var reg 1 ( mem_write $end
$var reg 5 ~ read_addr_a [4:0] $end
$var reg 5 !" read_addr_b [4:0] $end
$var reg 5 "" read_addr_c [4:0] $end
$var reg 1 $ ret $end
$var reg 1 # use_imm $end
$var reg 5 #" write_addr [4:0] $end
$var reg 1 ! write_en $end
$scope function sext12 $end
$var reg 12 $" x [11:0] $end
$upscope $end
$scope function zext12 $end
$var reg 12 %" x [11:0] $end
$upscope $end
$upscope $end
$scope task check_decode $end
$var reg 5 &" exp_alu_op [4:0] $end
$var reg 1 '" exp_branch_abs $end
$var reg 1 (" exp_branch_gt $end
$var reg 1 )" exp_branch_nz $end
$var reg 1 *" exp_branch_rel $end
$var reg 1 +" exp_call $end
$var reg 1 ," exp_illegal $end
$var reg 64 -" exp_imm [63:0] $end
$var reg 1 ." exp_mem_read $end
$var reg 1 /" exp_mem_write $end
$var reg 5 0" exp_read_addr_a [4:0] $end
$var reg 5 1" exp_read_addr_b [4:0] $end
$var reg 5 2" exp_read_addr_c [4:0] $end
$var reg 1 3" exp_ret $end
$var reg 1 4" exp_use_imm $end
$var reg 5 5" exp_write_addr [4:0] $end
$var reg 1 6" exp_write_en $end
$var reg 256 7" test_name [255:0] $end
$upscope $end
$upscope $end
$enddefinitions $end
$comment Show the parameter values. $end
$dumpall
b10 {
b11011 z
b10101 y
b11010 x
b101 w
b100 v
b111 u
b110 t
b1101 s
b1111 r
b1 q
b11 p
b10110 o
b11100 n
b10011 m
b10001 l
b10000 k
b10010 j
b10111 i
b11101 h
b1100 g
b1001 f
b1010 e
b1011 d
b1110 c
b1000 b
b0 a
b11001 `
b10100 _
b11000 ^
b100 ]
b1100 \
b1 [
b111 Z
b11 Y
b101 X
b1101 W
b1000 V
b1010 U
b110 T
b1110 S
b1001 R
b10 Q
b1011 P
b0 O
b1101 =
b1111 <
b10011 ;
b10000 :
b10010 9
b1100 8
b1010 7
b1110 6
b11001 5
b11000 4
b1010 3
b0 2
$end
#0
$dumpvars
b11000010110010001100100 7"
16"
b100 5"
04"
03"
b0 2"
b10 1"
b1 0"
0/"
0."
b0 -"
0,"
0+"
0*"
0)"
0("
0'"
b0 &"
bx %"
bx $"
b100 #"
b0 ""
b10 !"
b1 ~
b0 }
b0 |
b0 N
b11000 M
b100 L
b1 K
b10 J
b11000001000000100010000000000000 I
b10 H
b1 G
b100 F
b11000 E
bx D
bx C
bx B
bx A
bx @
b0 ?
b11000001000000100010000000000000 >
b0 1
00
0/
0.
0-
0,
0+
b0 *
0)
0(
b1 '
b10 &
b0 %
0$
0#
b100 "
1!
$end
#1000
b100100011 *
b100100011 }
b100100011 %"
1#
1!
b111 "
b111 #"
b0 &
b0 !"
b111 '
b111 ~
b11001 M
b111 L
b0 K
b0 J
b100100011 N
14"
b100100011 -"
b111 5"
b0 1"
b111 0"
b1100001011001000110010001101001 7"
b11001001110000000000000100100011 >
b11001001110000000000000100100011 I
b11001 A
b111 B
b0 C
b0 D
b100100011 @
#2000
b1010 1
b1010 |
b101010111100 %"
1#
b101010111100 *
b101010111100 }
1!
b1001 "
b1001 #"
b0 '
b0 ~
b10010 M
b1001 L
b101010111100 N
b101010111100 -"
b1010 &"
b1001 5"
b0 0"
b110110101101111011101100101111101101001 7"
b10010010010000000000101010111100 >
b10010010010000000000101010111100 I
b10010 A
b1001 B
b101010111100 @
#3000
1)
b100000 %"
b11 '
b11 ~
1#
b100000 *
b100000 }
b0 1
b0 |
1!
b1000 "
b1000 #"
b10000 M
b1000 L
b11 K
b100000 N
1."
b100000 -"
b0 &"
b1000 5"
b11 0"
b11011010110111101110110010111110110110101110010 7"
b10000010000001100000000000100000 >
b10000010000001100000000000100000 I
b10000 A
b1000 B
b11 C
b100000 @
#4000
1(
b1000000 %"
b1011 &
b1011 !"
0)
1#
b1000000 *
b1000000 }
0!
b0 "
b0 #"
b110 '
b110 ~
b10011 M
b110 L
b1011 K
b1000000 N
1/"
0."
b1000000 -"
06"
b0 5"
b1011 1"
b110 0"
b11011010110111101110110010111110111001001101101 7"
b10011001100101100000000001000000 >
b10011001100101100000000001000000 I
b10011 A
b110 B
b1011 C
b1000000 @
#5000
1-
b111111111000 $"
0(
1#
b1111111111111111111111111111111111111111111111111111111111111000 *
b1111111111111111111111111111111111111111111111111111111111111000 }
b0 &
b0 !"
b0 '
b0 ~
b1010 M
b0 L
b0 K
b111111111000 N
1*"
0/"
b1111111111111111111111111111111111111111111111111111111111111000 -"
b0 1"
b0 0"
b110001001110010011100100101111101101100001000000010110100111000 7"
b1010000000000000000111111111000 >
b1010000000000000000111111111000 I
b1010 A
b0 B
b0 C
b111111111000 @
#6000
1/
b1010 %
b1010 ""
b1101 &
b1101 !"
b1100 '
b1100 ~
0-
0#
b0 *
b0 }
b1110 M
b1010 L
b1100 K
b1101 J
b0 N
1("
0*"
04"
b0 -"
b1010 2"
b1101 1"
b1100 0"
b1100010011100100110011101110100 7"
b1110010100110001101000000000000 >
b1110010100110001101000000000000 I
b1110 E
b1010 F
b1100 G
b1101 H
#7000
1,
0/
b1110 %
b1110 ""
b11111 &
b11111 !"
b0 '
b0 ~
b1100 M
b1110 L
b0 K
b0 J
1+"
0("
b1110 2"
b11111 1"
b0 0"
b1100011011000010110110001101100 7"
b1100011100000000000000000000000 >
b1100011100000000000000000000000 I
b1100 E
b1110 F
b0 G
b0 H
#8000
1$
0,
b0 %
b0 ""
b11111 &
b11111 !"
b1101 M
b0 L
13"
0+"
b0 2"
b11100100110010101110100011101010111001001101110 7"
b1101000000000000000000000000000 >
b1101000000000000000000000000000 I
b1101 E
b0 F
#9000
1+
0$
b0 &
b0 !"
b1111 M
1,"
03"
b0 1"
b1110000011100100110100101110110 7"
b1111000000000000000000000000000 >
b1111000000000000000000000000000 I
b1111 E
#10000
1+
b11111 M
b11010010110110001101100011001010110011101100001011011000010000001100100011001010110011001100001011101010110110001110100 7"
b11111000000000000000000000000000 >
b11111000000000000000000000000000 I
b11111 E
