sim/reg_file_tb.vcd
$date
	Fri Apr  3 10:09:11 2026
$end
$version
	Icarus Verilog
$end
$timescale
	1ps
$end
$scope module reg_file_tb $end
$var wire 64 ! ru_data [63:0] $end
$var wire 64 " rt_data [63:0] $end
$var wire 64 # rs_data [63:0] $end
$var reg 1 $ clk $end
$var reg 5 % rd_addr [4:0] $end
$var reg 1 & reset $end
$var reg 5 ' rs_addr [4:0] $end
$var reg 5 ( rt_addr [4:0] $end
$var reg 5 ) ru_addr [4:0] $end
$var reg 64 * wr_data [63:0] $end
$var reg 1 + wr_en $end
$var integer 32 , errors [31:0] $end
$scope module dut $end
$var wire 1 $ clk $end
$var wire 5 - rd_addr [4:0] $end
$var wire 1 & reset $end
$var wire 5 . rs_addr [4:0] $end
$var wire 64 / rs_data [63:0] $end
$var wire 5 0 rt_addr [4:0] $end
$var wire 64 1 rt_data [63:0] $end
$var wire 5 2 ru_addr [4:0] $end
$var wire 64 3 ru_data [63:0] $end
$var wire 64 4 wr_data [63:0] $end
$var wire 1 + wr_en $end
$scope begin $unm_blk_2 $end
$var integer 32 5 i [31:0] $end
$upscope $end
$upscope $end
$scope task check_read $end
$var reg 64 6 exp_rs [63:0] $end
$var reg 64 7 exp_rt [63:0] $end
$var reg 64 8 exp_ru [63:0] $end
$var reg 256 9 test_name [255:0] $end
$upscope $end
$upscope $end
$enddefinitions $end
$comment Show the parameter values. $end
$dumpall
$end
#0
$dumpvars
bx 9
bx 8
bx 7
bx 6
bx 5
b0 4
bx 3
b11111 2
bx 1
b0 0
bx /
b0 .
b0 -
b0 ,
0+
b0 *
b11111 )
b0 (
b0 '
1&
b0 %
0$
bx #
bx "
bx !
$end
#5000
b10000000000000000000 !
b10000000000000000000 3
b0 #
b0 /
b0 "
b0 1
b100000 5
1$
#6000
b10000000000000000000 8
b0 7
b0 6
b111001001100101011100110110010101110100001000000111001101110100011000010111010001100101 9
#7000
0&
#10000
0$
#15000
1$
#16000
1+
b100100011010001010110011110001001101010111100110111101111 *
b100100011010001010110011110001001101010111100110111101111 4
b11 %
b11 -
#20000
0$
#25000
1$
#26000
b100100011010001010110011110001001101010111100110111101111 6
b111011101110010011010010111010001100101001000000111001000110011 9
b100100011010001010110011110001001101010111100110111101111 #
b100100011010001010110011110001001101010111100110111101111 /
b11 '
b11 .
0+
#27000
1+
b1111111111111111000000000000000010101010101010100101010101010101 *
b1111111111111111000000000000000010101010101010100101010101010101 4
b111 %
b111 -
#30000
0$
#35000
1$
#36000
b1111111111111111000000000000000010101010101010100101010101010101 7
b11011010111010101101100011101000110100100101101011100000110111101110010011101000010000001110010011001010110000101100100 9
b1111111111111111000000000000000010101010101010100101010101010101 "
b1111111111111111000000000000000010101010101010100101010101010101 1
b111 (
b111 0
0+
#37000
b1101111010101101101111101110111111011110101011011011111011101111 *
b1101111010101101101111101110111111011110101011011011111011101111 4
b11 %
b11 -
#40000
0$
#45000
1$
#46000
b111011101110010011010010111010001100101001000000110010001101001011100110110000101100010011011000110010101100100 9
#47000
1+
b1001000110100 *
b1001000110100 4
b11111 %
b11111 -
#50000
0$
#55000
b1001000110100 !
b1001000110100 3
1$
#56000
b100100011010001010110011110001001101010111100110111101111 8
b1001000110100 6
b11101110111001001101001011101000110010100100000011100100011001100110001 9
b100100011010001010110011110001001101010111100110111101111 !
b100100011010001010110011110001001101010111100110111101111 3
b11 )
b11 2
b1001000110100 #
b1001000110100 /
b11111 '
b11111 .
0+
#57000
1&
#60000
0$
#65000
b10000000000000000000 #
b10000000000000000000 /
b0 "
b0 1
b0 !
b0 3
b100000 5
1$
#66000
b10000000000000000000 8
b0 7
b0 6
b11100100110010101110011011001010111010000100000011000110110110001100101011000010111001001110011 9
b10000000000000000000 !
b10000000000000000000 3
b11111 )
b11111 2
b0 #
b0 /
b11 '
b11 .
