sim/tinker_core_tb.vcd
$date
	Thu Apr  2 23:04:13 2026
$end
$version
	Icarus Verilog
$end
$timescale
	1ps
$end
$scope module tinker_core_tb $end
$var parameter 64 ! DATA_BASE $end
$var parameter 5 " OP_ADD $end
$var parameter 5 # OP_ADDI $end
$var parameter 5 $ OP_BR $end
$var parameter 5 % OP_BRGT $end
$var parameter 5 & OP_BRNZ $end
$var parameter 5 ' OP_BRR_L $end
$var parameter 5 ( OP_BRR_R $end
$var parameter 5 ) OP_CALL $end
$var parameter 5 * OP_DIVF $end
$var parameter 5 + OP_MOV_I $end
$var parameter 5 , OP_MOV_MR $end
$var parameter 5 - OP_MOV_R $end
$var parameter 5 . OP_MOV_RM $end
$var parameter 5 / OP_MULF $end
$var parameter 5 0 OP_NOT $end
$var parameter 5 1 OP_RETURN $end
$var parameter 5 2 OP_SHFTLI $end
$var parameter 5 3 OP_SHFTRI $end
$var parameter 5 4 OP_SUBI $end
$var parameter 64 5 START_PC $end
$var reg 1 6 clk $end
$var reg 1 7 reset $end
$var integer 32 8 errors [31:0] $end
$scope function encode_i $end
$var reg 12 9 imm12 [11:0] $end
$var reg 5 : opcode [4:0] $end
$var reg 5 ; rd [4:0] $end
$var reg 5 < rs [4:0] $end
$var reg 5 = rt [4:0] $end
$upscope $end
$scope function encode_r $end
$var reg 5 > opcode [4:0] $end
$var reg 5 ? rd [4:0] $end
$var reg 5 @ rs [4:0] $end
$var reg 5 A rt [4:0] $end
$upscope $end
$scope module dut $end
$var wire 1 6 clk $end
$var wire 1 B mem_we $end
$var wire 1 C reg_write_en $end
$var wire 1 7 reset $end
$var wire 64 D ret_stack_addr [63:0] $end
$var wire 64 E stack_ptr [63:0] $end
$var wire 1 F write_en_dec $end
$var wire 64 G write_back_data [63:0] $end
$var wire 5 H write_addr [4:0] $end
$var wire 1 I use_imm $end
$var wire 64 J stack_write_data [63:0] $end
$var wire 1 K ret $end
$var wire 64 L reg_write_data [63:0] $end
$var wire 5 M reg_write_addr [4:0] $end
$var wire 64 N reg_data_c [63:0] $end
$var wire 64 O reg_data_b [63:0] $end
$var wire 64 P reg_data_a [63:0] $end
$var wire 5 Q read_addr_c [4:0] $end
$var wire 5 R read_addr_b [4:0] $end
$var wire 5 S read_addr_a [4:0] $end
$var wire 64 T pc [63:0] $end
$var wire 1 U mem_write $end
$var wire 64 V mem_wdata [63:0] $end
$var wire 1 W mem_read $end
$var wire 64 X mem_addr [63:0] $end
$var wire 32 Y instr [31:0] $end
$var wire 64 Z imm [63:0] $end
$var wire 1 [ illegal $end
$var wire 64 \ data_rdata [63:0] $end
$var wire 64 ] call_stack_addr [63:0] $end
$var wire 1 ^ call $end
$var wire 1 _ branch_rel $end
$var wire 1 ` branch_nz $end
$var wire 1 a branch_gt $end
$var wire 1 b branch_abs $end
$var wire 64 c alu_result [63:0] $end
$var wire 5 d alu_op [4:0] $end
$var wire 64 e alu_b [63:0] $end
$var reg 64 f next_pc [63:0] $end
$scope module alu $end
$var wire 64 g b [63:0] $end
$var wire 5 h op [4:0] $end
$var wire 64 i a [63:0] $end
$var parameter 5 j ADD $end
$var parameter 5 k ADDF $end
$var parameter 5 l AND $end
$var parameter 5 m DIV $end
$var parameter 5 n DIVF $end
$var parameter 5 o LSHIFT $end
$var parameter 5 p MOV $end
$var parameter 5 q MUL $end
$var parameter 5 r MULF $end
$var parameter 5 s NOT $end
$var parameter 5 t OR $end
$var parameter 5 u RSHIFT $end
$var parameter 5 v SUB $end
$var parameter 5 w SUBF $end
$var parameter 5 x XOR $end
$var reg 64 y result [63:0] $end
$upscope $end
$scope module decoder $end
$var wire 5 z rt [4:0] $end
$var wire 5 { rs [4:0] $end
$var wire 5 | rd [4:0] $end
$var wire 5 } opcode [4:0] $end
$var wire 32 ~ instr [31:0] $end
$var wire 12 !" L12 [11:0] $end
$var parameter 5 "" ALU_ADD $end
$var parameter 5 #" ALU_ADDF $end
$var parameter 5 $" ALU_AND $end
$var parameter 5 %" ALU_DIV $end
$var parameter 5 &" ALU_DIVF $end
$var parameter 5 '" ALU_LSHIFT $end
$var parameter 5 (" ALU_MOV $end
$var parameter 5 )" ALU_MUL $end
$var parameter 5 *" ALU_MULF $end
$var parameter 5 +" ALU_NOT $end
$var parameter 5 ," ALU_OR $end
$var parameter 5 -" ALU_RSHIFT $end
$var parameter 5 ." ALU_SUB $end
$var parameter 5 /" ALU_SUBF $end
$var parameter 5 0" ALU_XOR $end
$var parameter 5 1" OP_ADD $end
$var parameter 5 2" OP_ADDF $end
$var parameter 5 3" OP_ADDI $end
$var parameter 5 4" OP_AND $end
$var parameter 5 5" OP_BR $end
$var parameter 5 6" OP_BRGT $end
$var parameter 5 7" OP_BRNZ $end
$var parameter 5 8" OP_BRR_L $end
$var parameter 5 9" OP_BRR_R $end
$var parameter 5 :" OP_CALL $end
$var parameter 5 ;" OP_DIV $end
$var parameter 5 <" OP_DIVF $end
$var parameter 5 =" OP_MOV_I $end
$var parameter 5 >" OP_MOV_MR $end
$var parameter 5 ?" OP_MOV_R $end
$var parameter 5 @" OP_MOV_RM $end
$var parameter 5 A" OP_MUL $end
$var parameter 5 B" OP_MULF $end
$var parameter 5 C" OP_NOT $end
$var parameter 5 D" OP_OR $end
$var parameter 5 E" OP_PRIV $end
$var parameter 5 F" OP_RETURN $end
$var parameter 5 G" OP_SHFTL $end
$var parameter 5 H" OP_SHFTLI $end
$var parameter 5 I" OP_SHFTR $end
$var parameter 5 J" OP_SHFTRI $end
$var parameter 5 K" OP_SUB $end
$var parameter 5 L" OP_SUBF $end
$var parameter 5 M" OP_SUBI $end
$var parameter 5 N" OP_XOR $end
$var reg 5 O" alu_op [4:0] $end
$var reg 1 b branch_abs $end
$var reg 1 a branch_gt $end
$var reg 1 ` branch_nz $end
$var reg 1 _ branch_rel $end
$var reg 1 ^ call $end
$var reg 1 [ illegal $end
$var reg 64 P" imm [63:0] $end
$var reg 1 W mem_read $end
$var reg 1 U mem_write $end
$var reg 5 Q" read_addr_a [4:0] $end
$var reg 5 R" read_addr_b [4:0] $end
$var reg 5 S" read_addr_c [4:0] $end
$var reg 1 K ret $end
$var reg 1 I use_imm $end
$var reg 5 T" write_addr [4:0] $end
$var reg 1 F write_en $end
$scope function sext12 $end
$var reg 12 U" x [11:0] $end
$upscope $end
$scope function zext12 $end
$var reg 12 V" x [11:0] $end
$upscope $end
$upscope $end
$scope module fetch $end
$var wire 1 6 clk $end
$var wire 64 W" next_pc [63:0] $end
$var wire 1 7 reset $end
$var reg 64 X" pc [63:0] $end
$upscope $end
$scope module memory $end
$var wire 1 6 clk $end
$var wire 64 Y" data_addr [63:0] $end
$var wire 64 Z" data_wdata [63:0] $end
$var wire 1 B data_we $end
$var wire 64 [" instr_addr [63:0] $end
$var wire 32 \" instr_index [31:0] $end
$var wire 32 ]" instr [31:0] $end
$var wire 64 ^" data_rdata [63:0] $end
$var wire 32 _" data_index [31:0] $end
$upscope $end
$scope module reg_file $end
$var wire 1 6 clk $end
$var wire 5 `" rd_addr [4:0] $end
$var wire 1 7 reset $end
$var wire 5 a" rs_addr [4:0] $end
$var wire 64 b" rs_data [63:0] $end
$var wire 5 c" rt_addr [4:0] $end
$var wire 64 d" rt_data [63:0] $end
$var wire 5 e" ru_addr [4:0] $end
$var wire 64 f" ru_data [63:0] $end
$var wire 64 g" wr_data [63:0] $end
$var wire 1 C wr_en $end
$scope begin $unm_blk_44 $end
$var integer 32 h" i [31:0] $end
$upscope $end
$upscope $end
$upscope $end
$scope task check_mem64 $end
$var reg 64 i" addr [63:0] $end
$var reg 64 j" expected [63:0] $end
$var reg 64 k" got [63:0] $end
$var reg 256 l" test_name [255:0] $end
$var integer 32 m" idx [31:0] $end
$upscope $end
$scope task check_pc $end
$var reg 64 n" expected [63:0] $end
$var reg 256 o" test_name [255:0] $end
$upscope $end
$scope task check_reg $end
$var reg 64 p" expected [63:0] $end
$var reg 64 q" got [63:0] $end
$var reg 5 r" reg_idx [4:0] $end
$var reg 256 s" test_name [255:0] $end
$upscope $end
$scope task clear_memory $end
$var integer 32 t" i [31:0] $end
$upscope $end
$scope task seed_reg $end
$var reg 5 u" reg_idx [4:0] $end
$var reg 64 v" value [63:0] $end
$upscope $end
$scope task step_cycles $end
$var integer 32 w" count [31:0] $end
$var integer 32 x" i [31:0] $end
$upscope $end
$scope task write_data64 $end
$var reg 64 y" addr [63:0] $end
$var reg 64 z" value [63:0] $end
$var integer 32 {" idx [31:0] $end
$upscope $end
$scope task write_instr $end
$var reg 64 |" addr [63:0] $end
$var reg 32 }" instr [31:0] $end
$var integer 32 ~" idx [31:0] $end
$upscope $end
$upscope $end
$enddefinitions $end
$comment Show the parameter values. $end
$dumpall
b10 N"
b11011 M"
b10101 L"
b11010 K"
b101 J"
b100 I"
b111 H"
b110 G"
b1101 F"
b1111 E"
b1 D"
b11 C"
b10110 B"
b11100 A"
b10011 @"
b10001 ?"
b10000 >"
b10010 ="
b10111 <"
b11101 ;"
b1100 :"
b1001 9"
b1010 8"
b1011 7"
b1110 6"
b1000 5"
b0 4"
b11001 3"
b10100 2"
b11000 1"
b100 0"
b1100 /"
b1 ."
b111 -"
b11 ,"
b101 +"
b1101 *"
b1000 )"
b1010 ("
b110 '"
b1110 &"
b1001 %"
b10 $"
b1011 #"
b0 ""
b100 x
b1100 w
b1 v
b111 u
b11 t
b101 s
b1101 r
b1000 q
b1010 p
b110 o
b1110 n
b1001 m
b10 l
b1011 k
b0 j
b10000000000000 5
b11011 4
b101 3
b111 2
b1101 1
b11 0
b10110 /
b10011 .
b10001 -
b10000 ,
b10010 +
b10111 *
b1100 )
b1001 (
b1010 '
b1011 &
b1110 %
b1000 $
b11001 #
b11000 "
b10000000 !
$end
#0
$dumpvars
b10000010010100 ~"
b1101000000000000000000000000000 }"
b10000010010100 |"
bx {"
bx z"
bx y"
bx x"
bx w"
bx v"
bx u"
b10000100000000 t"
bx s"
bx r"
bx q"
bx p"
bx o"
bx n"
bx m"
bx l"
bx k"
bx j"
bx i"
bx h"
bx g"
bx f"
bx e"
bx d"
bx c"
bx b"
bx a"
bx `"
bx _"
bx ^"
bx ]"
bx \"
bx ["
bx Z"
bx Y"
bx X"
bx W"
bx V"
bx U"
bx T"
bx S"
bx R"
bx Q"
bx P"
bx O"
bx !"
bx ~
bx }
bx |
bx {
bx z
b0 y
bx i
bx h
bx g
bx f
bx e
bx d
b0 c
xb
xa
x`
x_
x^
bx ]
bx \
x[
bx Z
bx Y
bx X
xW
bx V
xU
bx T
bx S
bx R
bx Q
bx P
bx O
bx N
bx M
bx L
xK
bx J
xI
bx H
bx G
xF
bx E
bx D
xC
xB
b0 A
b0 @
b0 ?
b1101 >
b0 =
b0 <
b1111 ;
b10010 :
b10 9
b0 8
17
06
$end
#5000
1C
b101 L
b101 g"
b101 G
b0 \
b0 ^"
b101 _"
0B
b101 X
b101 Y"
b1 M
b1 `"
b0 V
b0 Z"
b101 e
b101 g
b101 c
b101 y
b101 V"
0[
0K
0^
0a
0`
0_
0b
0U
0W
1I
b101 Z
b101 P"
b1010 d
b1010 h
b1010 O"
1F
b1 H
b1 T"
b0 N
b0 f"
b0 Q
b0 S"
b0 e"
b0 D
b1111111111111111111111111111111111111111111111111111111111111000 ]
b0 E
b0 O
b0 d"
b0 R
b0 R"
b0 c"
b0 P
b0 i
b0 b"
b0 S
b0 Q"
b0 a"
b10010 }
b0 {
b1 |
b0 z
b101 !"
b10010000010000000000000000000101 Y
b10010000010000000000000000000101 ~
b10010000010000000000000000000101 ]"
b10000000000000 \"
b10000000000100 f
b10000000000100 W"
b10000000000100 J
b10000000000000 T
b10000000000000 X"
b10000000000000 ["
b100000 h"
16
#6000
b0 x"
b11101 w"
b100000000011000000000000000000000000000000000000000000000000000 v"
b1100 u"
07
#10000
06
#15000
b11 L
b11 g"
b11 _"
b11 G
b11 X
b11 Y"
b11 c
b11 y
b11 e
b11 g
b10 M
b10 `"
b11 V"
1I
b11 Z
b11 P"
b1010 d
b1010 h
b1010 O"
1F
b10 H
b10 T"
b10 |
b11 !"
b10010000100000000000000000000011 Y
b10010000100000000000000000000011 ~
b10010000100000000000000000000011 ]"
b10000000000100 \"
b10000000001000 f
b10000000001000 W"
b10000000001000 J
b10000000000100 T
b10000000000100 X"
b10000000000100 ["
b1 x"
16
#20000
06
#25000
b1000 L
b1000 g"
b101 _"
b101 X
b101 Y"
b1000 G
b11 V
b11 Z"
b1000 c
b1000 y
b11 M
b11 `"
b11 D
b1111111111111111111111111111111111111111111111111111111111111011 ]
b11 E
b11 O
b11 d"
b10 R
b10 R"
b10 c"
b101 P
b101 i
b101 b"
b1 S
b1 Q"
b1 a"
0I
b0 Z
b0 P"
b0 d
b0 h
b0 O"
1F
b11 H
b11 T"
b11000 }
b1 {
b11 |
b10 z
b0 !"
b11000000110000100010000000000000 Y
b11000000110000100010000000000000 ~
b11000000110000100010000000000000 ]"
b10000000001000 \"
b10000000001100 f
b10000000001100 W"
b10000000001100 J
b10000000001000 T
b10000000001000 X"
b10000000001000 ["
b10 x"
16
#30000
06
#35000
b1100 L
b1100 g"
b1100 _"
b1100 X
b1100 Y"
b1100 G
b0 V
b0 Z"
b100 e
b100 g
b1100 c
b1100 y
b100 Z
b100 P"
b100 V"
1I
1F
b11 H
b11 T"
b0 D
b1111111111111111111111111111111111111111111111111111111111111000 ]
b0 E
b0 O
b0 d"
b0 R
b0 R"
b0 c"
b1000 P
b1000 i
b1000 b"
b11 S
b11 Q"
b11 a"
b11001 }
b0 {
b0 z
b100 !"
b11001000110000000000000000000100 Y
b11001000110000000000000000000100 ~
b11001000110000000000000000000100 ]"
b10000000001100 \"
b10000000010000 f
b10000000010000 W"
b10000000010000 J
b10000000001100 T
b10000000001100 X"
b10000000001100 ["
b11 x"
16
#40000
06
#45000
b1010 L
b1010 g"
b10 e
b10 g
b1110 _"
b1 d
b1 h
b1 O"
b10 V"
1I
b10 Z
b10 P"
1F
b11 H
b11 T"
b11 S
b11 Q"
b11 a"
b1110 X
b1110 Y"
b1010 G
b11011 }
b10 !"
b1010 c
b1010 y
b11011000110000000000000000000010 Y
b11011000110000000000000000000010 ~
b11011000110000000000000000000010 ]"
b10000000010000 \"
b10000000010100 f
b10000000010100 W"
b1100 P
b1100 i
b1100 b"
b10000000010100 J
b10000000010000 T
b10000000010000 X"
b10000000010000 ["
b100 x"
16
#50000
06
#55000
b101000 L
b101000 g"
1I
b10 Z
b10 P"
b110 d
b110 h
b110 O"
1F
b11 H
b11 T"
b11 S
b11 Q"
b11 a"
b1100 _"
b111 }
b1100 X
b1100 Y"
b101000 G
b111000110000000000000000000010 Y
b111000110000000000000000000010 ~
b111000110000000000000000000010 ]"
b10000000010100 \"
b10000000011000 f
b10000000011000 W"
b101000 c
b101000 y
b10000000011000 J
b10000000010100 T
b10000000010100 X"
b10000000010100 ["
b1010 P
b1010 i
b1010 b"
b101 x"
16
#60000
06
#65000
b101 L
b101 g"
b11 e
b11 g
b101011 _"
b11 V"
1I
b11 Z
b11 P"
b111 d
b111 h
b111 O"
1F
b11 H
b11 T"
b11 S
b11 Q"
b11 a"
b101011 X
b101011 Y"
b101 G
b101 }
b11 !"
b101 c
b101 y
b101000110000000000000000000011 Y
b101000110000000000000000000011 ~
b101000110000000000000000000011 ]"
b10000000011000 \"
b10000000011100 f
b10000000011100 W"
b101000 P
b101000 i
b101000 b"
b10000000011100 J
b10000000011000 T
b10000000011000 X"
b10000000011000 ["
b110 x"
16
#70000
06
#75000
b10000000 e
b10000000 g
b100 M
b100 `"
b10000000 L
b10000000 g"
b10000000 V"
1I
b10000000 Z
b10000000 P"
b1010 d
b1010 h
b1010 O"
1F
b100 H
b100 T"
b0 S
b0 Q"
b0 a"
b10000000 _"
b10010 }
b100 |
b10000000 !"
b10000000 X
b10000000 Y"
b10000000 G
b10010001000000000000000010000000 Y
b10010001000000000000000010000000 ~
b10010001000000000000000010000000 ]"
b10000000011100 \"
b10000000100000 f
b10000000100000 W"
b10000000 c
b10000000 y
b10000000100000 J
b10000000011100 T
b10000000011100 X"
b10000000011100 ["
b0 P
b0 i
b0 b"
b111 x"
16
#80000
06
#85000
0C
b10001000 L
b10001000 g"
b10001000 _"
1B
b10001000 X
b10001000 Y"
b10001000 G
b101 V
b101 Z"
b1000 e
b1000 g
b10001000 c
b10001000 y
b0 M
b0 `"
1U
b1000 V"
b101 D
b1111111111111111111111111111111111111111111111111111111111111101 ]
b101 E
b101 O
b101 d"
b11 R
b11 R"
b11 c"
b10000000 P
b10000000 i
b10000000 b"
b100 S
b100 Q"
b100 a"
1I
b1000 Z
b1000 P"
b0 d
b0 h
b0 O"
0F
b0 H
b0 T"
b10011 }
b11 {
b1000 !"
b10011001000001100000000000001000 Y
b10011001000001100000000000001000 ~
b10011001000001100000000000001000 ]"
b10000000100000 \"
b10000000100100 f
b10000000100100 W"
b10000000100100 J
b10000000100000 T
b10000000100000 X"
b10000000100000 ["
b1000 x"
16
#90000
06
#95000
1C
b101 L
b101 g"
0B
b101 G
b101 M
b101 `"
b0 V
b0 Z"
1W
1F
b101 H
b101 T"
0U
1I
b1000 Z
b1000 P"
b0 D
b1111111111111111111111111111111111111111111111111111111111111000 ]
b0 E
b0 O
b0 d"
b0 R
b0 R"
b0 c"
b10000000 P
b10000000 i
b10000000 b"
b100 S
b100 Q"
b100 a"
b10000 }
b100 {
b101 |
b10000001010010000000000000001000 Y
b10000001010010000000000000001000 ~
b10000001010010000000000000001000 ]"
b10000000100100 \"
b10000000101000 f
b10000000101000 W"
b101 \
b101 ^"
b10000000101000 J
b10000000100100 T
b10000000100100 X"
b10000000100100 ["
b1001 x"
16
#100000
06
#105000
0C
b0 L
b0 g"
b0 \
b0 ^"
b0 _"
b0 X
b0 Y"
b0 G
b0 e
b0 g
b0 M
b0 `"
b0 c
b0 y
1`
b10000000111100 N
b10000000111100 f"
b10100 Q
b10100 S"
b10100 e"
0W
0I
b0 Z
b0 P"
0F
b0 H
b0 T"
b0 P
b0 i
b0 b"
b0 S
b0 Q"
b0 a"
b1011 }
b0 {
b10100 |
b0 !"
b1011101000000000000000000000000 Y
b1011101000000000000000000000000 ~
b1011101000000000000000000000000 ]"
b10000000101000 \"
b10000000101100 f
b10000000101100 W"
b10000000101100 J
b10000000101000 T
b10000000101000 X"
b10000000101000 ["
b1010 x"
16
#110000
06
#115000
1C
b1 L
b1 g"
b1 _"
b1 G
b1 X
b1 Y"
b1 c
b1 y
b1 e
b1 g
b110 M
b110 `"
b1010 d
b1010 h
b1010 O"
b1 Z
b1 P"
b1 V"
1I
1F
b110 H
b110 T"
0`
b0 N
b0 f"
b0 Q
b0 S"
b0 e"
b10010 }
b110 |
b1 !"
b10010001100000000000000000000001 Y
b10010001100000000000000000000001 ~
b10010001100000000000000000000001 ]"
b10000000101100 \"
b10000000110000 f
b10000000110000 W"
b10000000110000 J
b10000000101100 T
b10000000101100 X"
b10000000101100 ["
b1011 x"
16
#120000
06
#125000
0C
b101 L
b101 g"
b101 _"
b101 X
b101 Y"
b101 G
b0 e
b0 g
b101 c
b101 y
b0 M
b0 `"
1`
b10000000111100 N
b10000000111100 f"
b10100 Q
b10100 S"
b10100 e"
b101 P
b101 i
b101 b"
b101 S
b101 Q"
b101 a"
0I
b0 Z
b0 P"
b0 d
b0 h
b0 O"
0F
b0 H
b0 T"
b1011 }
b101 {
b10100 |
b0 !"
b1011101000010100000000000000000 Y
b1011101000010100000000000000000 ~
b1011101000010100000000000000000 ]"
b10000000110000 \"
b10000000111100 f
b10000000111100 W"
b10000000110100 J
b10000000110000 T
b10000000110000 X"
b10000000110000 ["
b1100 x"
16
#130000
06
#135000
b1000 L
b1000 g"
b11 _"
b11 X
b11 Y"
b1000 G
b101 V
b101 Z"
b101 e
b101 g
b1000 c
b1000 y
1a
b101 D
b1111111111111111111111111111111111111111111111111111111111111101 ]
b101 E
b101 O
b101 d"
b11 R
b11 R"
b11 c"
0`
b10000001001000 N
b10000001001000 f"
b10101 Q
b10101 S"
b10101 e"
b11 P
b11 i
b11 b"
b10 S
b10 Q"
b10 a"
b1110 }
b10 {
b10101 |
b11 z
b1110101010001000011000000000000 Y
b1110101010001000011000000000000 ~
b1110101010001000011000000000000 ]"
b10000000111100 \"
b10000001000000 f
b10000001000000 W"
b10000001000000 J
b10000000111100 T
b10000000111100 X"
b10000000111100 ["
b1101 x"
16
#140000
06
#145000
1C
b1 L
b1 g"
b1 _"
b1 X
b1 Y"
b1 G
b1000 M
b1000 `"
b0 V
b0 Z"
b1 e
b1 g
b1 c
b1 y
b1010 d
b1010 h
b1010 O"
b1 Z
b1 P"
1I
1F
b1000 H
b1000 T"
0a
b0 N
b0 f"
b0 Q
b0 S"
b0 e"
b0 D
b1111111111111111111111111111111111111111111111111111111111111000 ]
b0 E
b0 O
b0 d"
b0 R
b0 R"
b0 c"
b0 P
b0 i
b0 b"
b0 S
b0 Q"
b0 a"
b10010 }
b0 {
b1000 |
b0 z
b1 !"
b10010010000000000000000000000001 Y
b10010010000000000000000000000001 ~
b10010010000000000000000000000001 ]"
b10000001000000 \"
b10000001000100 f
b10000001000100 W"
b10000001000100 J
b10000001000000 T
b10000001000000 X"
b10000001000000 ["
b1110 x"
16
#150000
06
#155000
b1000 L
b1000 g"
0C
b101 _"
b101 X
b101 Y"
b1000 G
b11 V
b11 Z"
b11 e
b11 g
b1000 c
b1000 y
b0 M
b0 `"
1a
b10000001010000 N
b10000001010000 f"
b10110 Q
b10110 S"
b10110 e"
b11 D
b1111111111111111111111111111111111111111111111111111111111111011 ]
b11 E
b11 O
b11 d"
b10 R
b10 R"
b10 c"
b101 P
b101 i
b101 b"
b11 S
b11 Q"
b11 a"
0I
b0 Z
b0 P"
b0 d
b0 h
b0 O"
0F
b0 H
b0 T"
b1110 }
b11 {
b10110 |
b10 z
b0 !"
b1110101100001100010000000000000 Y
b1110101100001100010000000000000 ~
b1110101100001100010000000000000 ]"
b10000001000100 \"
b10000001010000 f
b10000001010000 W"
b10000001001000 J
b10000001000100 T
b10000001000100 X"
b10000001000100 ["
b1111 x"
16
#160000
06
#165000
b1000 L
b1000 g"
b1000 _"
b1000 X
b1000 Y"
b1000 G
b0 V
b0 Z"
b1000 e
b1000 g
b1000 c
b1000 y
1_
b1000 Z
b1000 P"
b1000 U"
1I
0a
b0 N
b0 f"
b0 Q
b0 S"
b0 e"
b0 D
b1111111111111111111111111111111111111111111111111111111111111000 ]
b0 E
b0 O
b0 d"
b0 R
b0 R"
b0 c"
b0 P
b0 i
b0 b"
b0 S
b0 Q"
b0 a"
b1010 }
b0 {
b0 |
b0 z
b1000 !"
b1010000000000000000000000001000 Y
b1010000000000000000000000001000 ~
b1010000000000000000000000001000 ]"
b10000001010000 \"
b10000001011000 f
b10000001011000 W"
b10000001010100 J
b10000001010000 T
b10000001010000 X"
b10000001010000 ["
b10000 x"
16
#170000
06
#175000
b0 L
b0 g"
b0 _"
b0 G
b0 X
b0 Y"
b0 c
b0 y
b0 e
b0 g
b1100 N
b1100 f"
b10111 Q
b10111 S"
b10111 e"
1_
0I
b0 Z
b0 P"
b1001 }
b10111 |
b0 !"
b1001101110000000000000000000000 Y
b1001101110000000000000000000000 ~
b1001101110000000000000000000000 ]"
b10000001011000 \"
b10000001100100 f
b10000001100100 W"
b10000001011100 J
b10000001011000 T
b10000001011000 X"
b10000001011000 ["
b10001 x"
16
#180000
06
#185000
1b
0_
b10000001110000 N
b10000001110000 f"
b11000 Q
b11000 S"
b11000 e"
b1000 }
b11000 |
b1000110000000000000000000000000 Y
b1000110000000000000000000000000 ~
b1000110000000000000000000000000 ]"
b10000001100100 \"
b10000001110000 f
b10000001110000 W"
b10000001101000 J
b10000001100100 T
b10000001100100 X"
b10000001100100 ["
b10010 x"
16
#190000
06
#195000
1C
b100000000011000000000000000000000000000000000000000000000000000 L
b100000000011000000000000000000000000000000000000000000000000000 g"
b100000000011000000000000000000000000000000000000000000000000000 G
b100000000011000000000000000000000000000000000000000000000000000 c
b100000000011000000000000000000000000000000000000000000000000000 y
b100000000000000000000000000000000000000000000000000000000000000 X
b100000000000000000000000000000000000000000000000000000000000000 Y"
b1101 M
b1101 `"
b100000000001000000000000000000000000000000000000000000000000000 V
b100000000001000000000000000000000000000000000000000000000000000 Z"
b100000000001000000000000000000000000000000000000000000000000000 e
b100000000001000000000000000000000000000000000000000000000000000 g
b1101 d
b1101 h
b1101 O"
1F
b1101 H
b1101 T"
b100000000001000000000000000000000000000000000000000000000000000 D
b100000000000111111111111111111111111111111111111111111111111000 ]
b100000000001000000000000000000000000000000000000000000000000000 E
b100000000001000000000000000000000000000000000000000000000000000 O
b100000000001000000000000000000000000000000000000000000000000000 d"
b1011 R
b1011 R"
b1011 c"
b100000000000000000000000000000000000000000000000000000000000000 P
b100000000000000000000000000000000000000000000000000000000000000 i
b100000000000000000000000000000000000000000000000000000000000000 b"
b1010 S
b1010 Q"
b1010 a"
0b
b0 N
b0 f"
b0 Q
b0 S"
b0 e"
b10110 }
b1010 {
b1101 |
b1011 z
b10110011010101001011000000000000 Y
b10110011010101001011000000000000 ~
b10110011010101001011000000000000 ]"
b10000001110000 \"
b10000001110100 f
b10000001110100 W"
b10000001110100 J
b10000001110000 T
b10000001110000 X"
b10000001110000 ["
b10011 x"
16
#200000
06
#205000
b100000000001000000000000000000000000000000000000000000000000000 L
b100000000001000000000000000000000000000000000000000000000000000 g"
b100000000011000000000000000000000000000000000000000000000000000 X
b100000000011000000000000000000000000000000000000000000000000000 Y"
b100000000001000000000000000000000000000000000000000000000000000 G
b1110 M
b1110 `"
b100000000000000000000000000000000000000000000000000000000000000 V
b100000000000000000000000000000000000000000000000000000000000000 Z"
b100000000000000000000000000000000000000000000000000000000000000 e
b100000000000000000000000000000000000000000000000000000000000000 g
b100000000001000000000000000000000000000000000000000000000000000 c
b100000000001000000000000000000000000000000000000000000000000000 y
b1110 d
b1110 h
b1110 O"
1F
b1110 H
b1110 T"
b100000000000000000000000000000000000000000000000000000000000000 D
b11111111111111111111111111111111111111111111111111111111111000 ]
b100000000000000000000000000000000000000000000000000000000000000 E
b100000000000000000000000000000000000000000000000000000000000000 O
b100000000000000000000000000000000000000000000000000000000000000 d"
b1010 R
b1010 R"
b1010 c"
b100000000011000000000000000000000000000000000000000000000000000 P
b100000000011000000000000000000000000000000000000000000000000000 i
b100000000011000000000000000000000000000000000000000000000000000 b"
b1100 S
b1100 Q"
b1100 a"
b10111 }
b1100 {
b1110 |
b1010 z
b10111011100110001010000000000000 Y
b10111011100110001010000000000000 ~
b10111011100110001010000000000000 ]"
b10000001110100 \"
b10000001111000 f
b10000001111000 W"
b10000001111000 J
b10000001110100 T
b10000001110100 X"
b10000001110100 ["
b10100 x"
16
#210000
06
#215000
bx \
bx ^"
b1111111111111111000 _"
1B
b10000000000000000000 G
b1111111111111111000 L
b1111111111111111000 g"
b1111111111111111000 X
b1111111111111111000 Y"
b11111 M
b11111 `"
b10000001111100 V
b10000001111100 Z"
b10000000000000000000 e
b10000000000000000000 g
b10000000000000000000 c
b10000000000000000000 y
1^
b10000010010000 N
b10000010010000 f"
b11001 Q
b11001 S"
b11001 e"
b0 d
b0 h
b0 O"
0F
b0 H
b0 T"
b10000000000000000000 D
b1111111111111111000 ]
b10000000000000000000 E
b10000000000000000000 O
b10000000000000000000 d"
b11111 R
b11111 R"
b11111 c"
b0 P
b0 i
b0 b"
b0 S
b0 Q"
b0 a"
b1100 }
b0 {
b11001 |
b0 z
b1100110010000000000000000000000 Y
b1100110010000000000000000000000 ~
b1100110010000000000000000000000 ]"
b10000001111000 \"
b10000010010000 f
b10000010010000 W"
b10000001111100 J
b10000001111000 T
b10000001111000 X"
b10000001111000 ["
b10101 x"
16
#220000
06
#225000
1C
b1111 M
b1111 `"
0B
b10 G
b1010 d
b1010 h
b1010 O"
b10 Z
b10 P"
b10 V"
1I
1F
b1111 H
b1111 T"
0^
b0 N
b0 f"
b0 Q
b0 S"
b0 e"
b0 R
b0 R"
b0 c"
b10 c
b10 y
b10 _"
b10010 }
b1111 |
b10 !"
b10 e
b10 g
b10 X
b10 Y"
b10 L
b10 g"
b10010011110000000000000000000010 Y
b10010011110000000000000000000010 ~
b10010011110000000000000000000010 ]"
b10000010010000 \"
b0 V
b0 Z"
b10000010010100 f
b10000010010100 W"
b0 D
b1111111111111111111111111111111111111111111111111111111111111000 ]
b0 E
b0 O
b0 d"
b10000010010100 J
b10000010010000 T
b10000010010000 X"
b10000010010000 ["
b0 \
b0 ^"
b10110 x"
16
#230000
06
#235000
b10000001111100 \
b10000001111100 ^"
b1111111111111111000 _"
b1111111111111111000 G
b10000000000000000000 L
b10000000000000000000 g"
b1111111111111111000 X
b1111111111111111000 Y"
b1111111111111111000 c
b1111111111111111000 y
b1111111111111111000 V
b1111111111111111000 Z"
b1111111111111111000 e
b1111111111111111000 g
b11111 M
b11111 `"
1K
b1111111111111111000 D
b1111111111111110000 ]
b1111111111111111000 E
b1111111111111111000 O
b1111111111111111000 d"
b11111 R
b11111 R"
b11111 c"
0I
b0 Z
b0 P"
b0 d
b0 h
b0 O"
0F
b0 H
b0 T"
b1101 }
b0 |
b0 !"
b1101000000000000000000000000000 Y
b1101000000000000000000000000000 ~
b1101000000000000000000000000000 ]"
b10000010010100 \"
b10000001111100 f
b10000001111100 W"
b10000010011000 J
b10000010010100 T
b10000010010100 X"
b10000010010100 ["
b10111 x"
16
#240000
06
